^C:\USERS\THERESA\DESKTOP\TESTNETWORKSETUP\OPEN62541\BUILD\CMAKEFILES\9846A80D9747BABF1E536B2D87DBB3ED\NAMESPACE0_GENERATED.C.RULE
setlocal"C:\Program Files (x86)\Microsoft Visual Studio\Shared\Python36_64\python.exe" C:/Users/Theresa/Desktop/testnetworksetup/open62541/tools/nodeset_compiler/nodeset_compiler.py --internal-headers --generate-ns0 --encode-binary-size=32000 --ignore=C:/Users/Theresa/Desktop/testnetworksetup/open62541/tools/nodeset_compiler/NodeID_NS0_Base.txt --xml=C:/Users/Theresa/Desktop/testnetworksetup/open62541/deps/ua-nodeset/Schema/Opc.Ua.NodeSet2.xml C:/Users/Theresa/Desktop/testnetworksetup/open62541/build/src_generated/open62541/namespace0_generatedif %errorlevel% neq 0 goto :cmEnd:cmEndendlocal & call :cmErrorLevel %errorlevel% & goto :cmDone:cmErrorLevelexit /b %1:cmDoneif %errorlevel% neq 0 goto :VCEnd
^C:\USERS\THERESA\DESKTOP\TESTNETWORKSETUP\OPEN62541\BUILD\CMAKEFILES\702CCDF3E780BD443CA1B183C28D99E2\OPEN62541-GENERATOR-NAMESPACE.RULE
setlocal:cmEndendlocal & call :cmErrorLevel %errorlevel% & goto :cmDone:cmErrorLevelexit /b %1:cmDoneif %errorlevel% neq 0 goto :VCEnd
^C:\USERS\THERESA\DESKTOP\TESTNETWORKSETUP\OPEN62541\CMAKELISTS.TXT
setlocal"C:\Program Files\CMake\bin\cmake.exe" -SC:/Users/Theresa/Desktop/testnetworksetup/open62541 -BC:/Users/Theresa/Desktop/testnetworksetup/open62541/build --check-stamp-file C:/Users/Theresa/Desktop/testnetworksetup/open62541/build/CMakeFiles/generate.stampif %errorlevel% neq 0 goto :cmEnd:cmEndendlocal & call :cmErrorLevel %errorlevel% & goto :cmDone:cmErrorLevelexit /b %1:cmDoneif %errorlevel% neq 0 goto :VCEnd
