^C:\USERS\THERESA\DESKTOP\TESTNETWORKSETUP\OPEN62541\BUILD\SRC_GENERATED\OPEN62541\NAMESPACE0_GENERATED.C|C:\USERS\THERESA\DESKTOP\TESTNETWORKSETUP\OPEN62541\BUILD\SRC_GENERATED\OPEN62541\STATUSCODES.C|C:\USERS\THERESA\DESKTOP\TESTNETWORKSETUP\OPEN62541\BUILD\SRC_GENERATED\OPEN62541\TRANSPORT_GENERATED.C|C:\USERS\THERESA\DESKTOP\TESTNETWORKSETUP\OPEN62541\BUILD\SRC_GENERATED\OPEN62541\TYPES_GENERATED.C|C:\USERS\THERESA\DESKTOP\TESTNETWORKSETUP\OPEN62541\DEPS\BASE64.C|C:\USERS\THERESA\DESKTOP\TESTNETWORKSETUP\OPEN62541\DEPS\LIBC_TIME.C|C:\USERS\THERESA\DESKTOP\TESTNETWORKSETUP\OPEN62541\DEPS\PCG_BASIC.C|C:\USERS\THERESA\DESKTOP\TESTNETWORKSETUP\OPEN62541\SRC\CLIENT\UA_CLIENT.C|C:\USERS\THERESA\DESKTOP\TESTNETWORKSETUP\OPEN62541\SRC\CLIENT\UA_CLIENT_CONNECT.C|C:\USERS\THERESA\DESKTOP\TESTNETWORKSETUP\OPEN62541\SRC\CLIENT\UA_CLIENT_CONNECT_ASYNC.C|C:\USERS\THERESA\DESKTOP\TESTNETWORKSETUP\OPEN62541\SRC\CLIENT\UA_CLIENT_DISCOVERY.C|C:\USERS\THERESA\DESKTOP\TESTNETWORKSETUP\OPEN62541\SRC\CLIENT\UA_CLIENT_HIGHLEVEL.C|C:\USERS\THERESA\DESKTOP\TESTNETWORKSETUP\OPEN62541\SRC\CLIENT\UA_CLIENT_SUBSCRIPTIONS.C|C:\USERS\THERESA\DESKTOP\TESTNETWORKSETUP\OPEN62541\SRC\CLIENT\UA_CLIENT_WORKER.C|C:\USERS\THERESA\DESKTOP\TESTNETWORKSETUP\OPEN62541\SRC\PUBSUB\UA_PUBSUB.C|C:\USERS\THERESA\DESKTOP\TESTNETWORKSETUP\OPEN62541\SRC\PUBSUB\UA_PUBSUB_MANAGER.C|C:\USERS\THERESA\DESKTOP\TESTNETWORKSETUP\OPEN62541\SRC\PUBSUB\UA_PUBSUB_NETWORKMESSAGE.C|C:\USERS\THERESA\DESKTOP\TESTNETWORKSETUP\OPEN62541\SRC\PUBSUB\UA_PUBSUB_NS0.C|C:\USERS\THERESA\DESKTOP\TESTNETWORKSETUP\OPEN62541\SRC\SERVER\UA_DISCOVERY_MANAGER.C|C:\USERS\THERESA\DESKTOP\TESTNETWORKSETUP\OPEN62541\SRC\SERVER\UA_NODES.C|C:\USERS\THERESA\DESKTOP\TESTNETWORKSETUP\OPEN62541\SRC\SERVER\UA_SECURECHANNEL_MANAGER.C|C:\USERS\THERESA\DESKTOP\TESTNETWORKSETUP\OPEN62541\SRC\SERVER\UA_SERVER.C|C:\USERS\THERESA\DESKTOP\TESTNETWORKSETUP\OPEN62541\SRC\SERVER\UA_SERVER_BINARY.C|C:\USERS\THERESA\DESKTOP\TESTNETWORKSETUP\OPEN62541\SRC\SERVER\UA_SERVER_DISCOVERY.C|C:\USERS\THERESA\DESKTOP\TESTNETWORKSETUP\OPEN62541\SRC\SERVER\UA_SERVER_NS0.C|C:\USERS\THERESA\DESKTOP\TESTNETWORKSETUP\OPEN62541\SRC\SERVER\UA_SERVER_UTILS.C|C:\USERS\THERESA\DESKTOP\TESTNETWORKSETUP\OPEN62541\SRC\SERVER\UA_SERVICES_ATTRIBUTE.C|C:\USERS\THERESA\DESKTOP\TESTNETWORKSETUP\OPEN62541\SRC\SERVER\UA_SERVICES_CALL.C|C:\USERS\THERESA\DESKTOP\TESTNETWORKSETUP\OPEN62541\SRC\SERVER\UA_SERVICES_DISCOVERY.C|C:\USERS\THERESA\DESKTOP\TESTNETWORKSETUP\OPEN62541\SRC\SERVER\UA_SERVICES_DISCOVERY_MULTICAST.C|C:\USERS\THERESA\DESKTOP\TESTNETWORKSETUP\OPEN62541\SRC\SERVER\UA_SERVICES_NODEMANAGEMENT.C|C:\USERS\THERESA\DESKTOP\TESTNETWORKSETUP\OPEN62541\SRC\SERVER\UA_SERVICES_SECURECHANNEL.C|C:\USERS\THERESA\DESKTOP\TESTNETWORKSETUP\OPEN62541\SRC\SERVER\UA_SERVICES_SESSION.C|C:\USERS\THERESA\DESKTOP\TESTNETWORKSETUP\OPEN62541\SRC\SERVER\UA_SERVICES_SUBSCRIPTION.C|C:\USERS\THERESA\DESKTOP\TESTNETWORKSETUP\OPEN62541\SRC\SERVER\UA_SERVICES_VIEW.C|C:\USERS\THERESA\DESKTOP\TESTNETWORKSETUP\OPEN62541\SRC\SERVER\UA_SESSION.C|C:\USERS\THERESA\DESKTOP\TESTNETWORKSETUP\OPEN62541\SRC\SERVER\UA_SESSION_MANAGER.C|C:\USERS\THERESA\DESKTOP\TESTNETWORKSETUP\OPEN62541\SRC\SERVER\UA_SUBSCRIPTION.C|C:\USERS\THERESA\DESKTOP\TESTNETWORKSETUP\OPEN62541\SRC\SERVER\UA_SUBSCRIPTION_DATACHANGE.C|C:\USERS\THERESA\DESKTOP\TESTNETWORKSETUP\OPEN62541\SRC\SERVER\UA_SUBSCRIPTION_MONITOREDITEM.C|C:\USERS\THERESA\DESKTOP\TESTNETWORKSETUP\OPEN62541\SRC\UA_CONNECTION.C|C:\USERS\THERESA\DESKTOP\TESTNETWORKSETUP\OPEN62541\SRC\UA_SECURECHANNEL.C|C:\USERS\THERESA\DESKTOP\TESTNETWORKSETUP\OPEN62541\SRC\UA_TIMER.C|C:\USERS\THERESA\DESKTOP\TESTNETWORKSETUP\OPEN62541\SRC\UA_TYPES.C|C:\USERS\THERESA\DESKTOP\TESTNETWORKSETUP\OPEN62541\SRC\UA_TYPES_ENCODING_BINARY.C|C:\USERS\THERESA\DESKTOP\TESTNETWORKSETUP\OPEN62541\SRC\UA_UTIL.C|C:\USERS\THERESA\DESKTOP\TESTNETWORKSETUP\OPEN62541\SRC\UA_WORKQUEUE.C
C:\USERS\THERESA\DESKTOP\PUBSUB-WITH-OPEN62541\PUBSUBTEST\OPEN62541\BUILD\OPEN62541-OBJECT.DIR\DEBUG\OPEN62541-OBJECT.PDB
C:\USERS\THERESA\DESKTOP\PUBSUB-WITH-OPEN62541\PUBSUBTEST\OPEN62541\BUILD\OPEN62541-OBJECT.DIR\DEBUG\UA_PUBSUB_NETWORKMESSAGE.OBJ
C:\USERS\THERESA\DESKTOP\PUBSUB-WITH-OPEN62541\PUBSUBTEST\OPEN62541\BUILD\OPEN62541-OBJECT.DIR\DEBUG\UA_SESSION_MANAGER.OBJ
C:\USERS\THERESA\DESKTOP\PUBSUB-WITH-OPEN62541\PUBSUBTEST\OPEN62541\BUILD\OPEN62541-OBJECT.DIR\DEBUG\UA_SECURECHANNEL_MANAGER.OBJ
C:\USERS\THERESA\DESKTOP\PUBSUB-WITH-OPEN62541\PUBSUBTEST\OPEN62541\BUILD\OPEN62541-OBJECT.DIR\DEBUG\UA_SERVER_DISCOVERY.OBJ
C:\USERS\THERESA\DESKTOP\PUBSUB-WITH-OPEN62541\PUBSUBTEST\OPEN62541\BUILD\OPEN62541-OBJECT.DIR\DEBUG\UA_SERVER_UTILS.OBJ
C:\USERS\THERESA\DESKTOP\PUBSUB-WITH-OPEN62541\PUBSUBTEST\OPEN62541\BUILD\OPEN62541-OBJECT.DIR\DEBUG\UA_SERVER_BINARY.OBJ
C:\USERS\THERESA\DESKTOP\PUBSUB-WITH-OPEN62541\PUBSUBTEST\OPEN62541\BUILD\OPEN62541-OBJECT.DIR\DEBUG\UA_SERVER_NS0.OBJ
C:\USERS\THERESA\DESKTOP\PUBSUB-WITH-OPEN62541\PUBSUBTEST\OPEN62541\BUILD\OPEN62541-OBJECT.DIR\DEBUG\UA_SERVER.OBJ
C:\USERS\THERESA\DESKTOP\PUBSUB-WITH-OPEN62541\PUBSUBTEST\OPEN62541\BUILD\OPEN62541-OBJECT.DIR\DEBUG\UA_NODES.OBJ
C:\USERS\THERESA\DESKTOP\PUBSUB-WITH-OPEN62541\PUBSUBTEST\OPEN62541\BUILD\OPEN62541-OBJECT.DIR\DEBUG\UA_SESSION.OBJ
C:\USERS\THERESA\DESKTOP\PUBSUB-WITH-OPEN62541\PUBSUBTEST\OPEN62541\BUILD\OPEN62541-OBJECT.DIR\DEBUG\UA_SECURECHANNEL.OBJ
C:\USERS\THERESA\DESKTOP\PUBSUB-WITH-OPEN62541\PUBSUBTEST\OPEN62541\BUILD\OPEN62541-OBJECT.DIR\DEBUG\UA_CONNECTION.OBJ
C:\USERS\THERESA\DESKTOP\PUBSUB-WITH-OPEN62541\PUBSUBTEST\OPEN62541\BUILD\OPEN62541-OBJECT.DIR\DEBUG\UA_TIMER.OBJ
C:\USERS\THERESA\DESKTOP\PUBSUB-WITH-OPEN62541\PUBSUBTEST\OPEN62541\BUILD\OPEN62541-OBJECT.DIR\DEBUG\UA_WORKQUEUE.OBJ
C:\USERS\THERESA\DESKTOP\PUBSUB-WITH-OPEN62541\PUBSUBTEST\OPEN62541\BUILD\OPEN62541-OBJECT.DIR\DEBUG\UA_UTIL.OBJ
C:\USERS\THERESA\DESKTOP\PUBSUB-WITH-OPEN62541\PUBSUBTEST\OPEN62541\BUILD\OPEN62541-OBJECT.DIR\DEBUG\STATUSCODES.OBJ
C:\USERS\THERESA\DESKTOP\PUBSUB-WITH-OPEN62541\PUBSUBTEST\OPEN62541\BUILD\OPEN62541-OBJECT.DIR\DEBUG\TRANSPORT_GENERATED.OBJ
C:\USERS\THERESA\DESKTOP\PUBSUB-WITH-OPEN62541\PUBSUBTEST\OPEN62541\BUILD\OPEN62541-OBJECT.DIR\DEBUG\TYPES_GENERATED.OBJ
C:\USERS\THERESA\DESKTOP\PUBSUB-WITH-OPEN62541\PUBSUBTEST\OPEN62541\BUILD\OPEN62541-OBJECT.DIR\DEBUG\UA_TYPES_ENCODING_BINARY.OBJ
C:\USERS\THERESA\DESKTOP\PUBSUB-WITH-OPEN62541\PUBSUBTEST\OPEN62541\BUILD\OPEN62541-OBJECT.DIR\DEBUG\UA_TYPES.OBJ
C:\USERS\THERESA\DESKTOP\PUBSUB-WITH-OPEN62541\PUBSUBTEST\OPEN62541\BUILD\OPEN62541-OBJECT.DIR\DEBUG\LIBC_TIME.OBJ
C:\USERS\THERESA\DESKTOP\PUBSUB-WITH-OPEN62541\PUBSUBTEST\OPEN62541\BUILD\OPEN62541-OBJECT.DIR\DEBUG\UA_CLIENT_WORKER.OBJ
C:\USERS\THERESA\DESKTOP\PUBSUB-WITH-OPEN62541\PUBSUBTEST\OPEN62541\BUILD\OPEN62541-OBJECT.DIR\DEBUG\UA_CLIENT_SUBSCRIPTIONS.OBJ
C:\USERS\THERESA\DESKTOP\PUBSUB-WITH-OPEN62541\PUBSUBTEST\OPEN62541\BUILD\OPEN62541-OBJECT.DIR\DEBUG\UA_CLIENT_HIGHLEVEL.OBJ
C:\USERS\THERESA\DESKTOP\PUBSUB-WITH-OPEN62541\PUBSUBTEST\OPEN62541\BUILD\OPEN62541-OBJECT.DIR\DEBUG\UA_CLIENT_DISCOVERY.OBJ
C:\USERS\THERESA\DESKTOP\PUBSUB-WITH-OPEN62541\PUBSUBTEST\OPEN62541\BUILD\OPEN62541-OBJECT.DIR\DEBUG\UA_CLIENT_CONNECT_ASYNC.OBJ
C:\USERS\THERESA\DESKTOP\PUBSUB-WITH-OPEN62541\PUBSUBTEST\OPEN62541\BUILD\OPEN62541-OBJECT.DIR\DEBUG\UA_CLIENT_CONNECT.OBJ
C:\USERS\THERESA\DESKTOP\PUBSUB-WITH-OPEN62541\PUBSUBTEST\OPEN62541\BUILD\OPEN62541-OBJECT.DIR\DEBUG\UA_CLIENT.OBJ
C:\USERS\THERESA\DESKTOP\PUBSUB-WITH-OPEN62541\PUBSUBTEST\OPEN62541\BUILD\OPEN62541-OBJECT.DIR\DEBUG\UA_SERVICES_DISCOVERY_MULTICAST.OBJ
C:\USERS\THERESA\DESKTOP\PUBSUB-WITH-OPEN62541\PUBSUBTEST\OPEN62541\BUILD\OPEN62541-OBJECT.DIR\DEBUG\UA_SERVICES_NODEMANAGEMENT.OBJ
C:\USERS\THERESA\DESKTOP\PUBSUB-WITH-OPEN62541\PUBSUBTEST\OPEN62541\BUILD\OPEN62541-OBJECT.DIR\DEBUG\UA_SERVICES_SECURECHANNEL.OBJ
C:\USERS\THERESA\DESKTOP\PUBSUB-WITH-OPEN62541\PUBSUBTEST\OPEN62541\BUILD\OPEN62541-OBJECT.DIR\DEBUG\UA_SERVICES_SUBSCRIPTION.OBJ
C:\USERS\THERESA\DESKTOP\PUBSUB-WITH-OPEN62541\PUBSUBTEST\OPEN62541\BUILD\OPEN62541-OBJECT.DIR\DEBUG\UA_SERVICES_DISCOVERY.OBJ
C:\USERS\THERESA\DESKTOP\PUBSUB-WITH-OPEN62541\PUBSUBTEST\OPEN62541\BUILD\OPEN62541-OBJECT.DIR\DEBUG\UA_SERVICES_ATTRIBUTE.OBJ
C:\USERS\THERESA\DESKTOP\PUBSUB-WITH-OPEN62541\PUBSUBTEST\OPEN62541\BUILD\OPEN62541-OBJECT.DIR\DEBUG\UA_SERVICES_SESSION.OBJ
C:\USERS\THERESA\DESKTOP\PUBSUB-WITH-OPEN62541\PUBSUBTEST\OPEN62541\BUILD\OPEN62541-OBJECT.DIR\DEBUG\UA_SERVICES_CALL.OBJ
C:\USERS\THERESA\DESKTOP\PUBSUB-WITH-OPEN62541\PUBSUBTEST\OPEN62541\BUILD\OPEN62541-OBJECT.DIR\DEBUG\UA_SERVICES_VIEW.OBJ
C:\USERS\THERESA\DESKTOP\PUBSUB-WITH-OPEN62541\PUBSUBTEST\OPEN62541\BUILD\OPEN62541-OBJECT.DIR\DEBUG\UA_PUBSUB_NS0.OBJ
C:\USERS\THERESA\DESKTOP\PUBSUB-WITH-OPEN62541\PUBSUBTEST\OPEN62541\BUILD\OPEN62541-OBJECT.DIR\DEBUG\UA_PUBSUB_MANAGER.OBJ
C:\USERS\THERESA\DESKTOP\PUBSUB-WITH-OPEN62541\PUBSUBTEST\OPEN62541\BUILD\OPEN62541-OBJECT.DIR\DEBUG\UA_PUBSUB.OBJ
C:\USERS\THERESA\DESKTOP\PUBSUB-WITH-OPEN62541\PUBSUBTEST\OPEN62541\BUILD\OPEN62541-OBJECT.DIR\DEBUG\UA_SUBSCRIPTION_DATACHANGE.OBJ
C:\USERS\THERESA\DESKTOP\PUBSUB-WITH-OPEN62541\PUBSUBTEST\OPEN62541\BUILD\OPEN62541-OBJECT.DIR\DEBUG\UA_SUBSCRIPTION_MONITOREDITEM.OBJ
C:\USERS\THERESA\DESKTOP\PUBSUB-WITH-OPEN62541\PUBSUBTEST\OPEN62541\BUILD\OPEN62541-OBJECT.DIR\DEBUG\UA_SUBSCRIPTION.OBJ
C:\USERS\THERESA\DESKTOP\PUBSUB-WITH-OPEN62541\PUBSUBTEST\OPEN62541\BUILD\OPEN62541-OBJECT.DIR\DEBUG\UA_DISCOVERY_MANAGER.OBJ
C:\USERS\THERESA\DESKTOP\PUBSUB-WITH-OPEN62541\PUBSUBTEST\OPEN62541\BUILD\OPEN62541-OBJECT.DIR\DEBUG\NAMESPACE0_GENERATED.OBJ
C:\USERS\THERESA\DESKTOP\PUBSUB-WITH-OPEN62541\PUBSUBTEST\OPEN62541\BUILD\OPEN62541-OBJECT.DIR\DEBUG\BASE64.OBJ
C:\USERS\THERESA\DESKTOP\PUBSUB-WITH-OPEN62541\PUBSUBTEST\OPEN62541\BUILD\OPEN62541-OBJECT.DIR\DEBUG\PCG_BASIC.OBJ
^C:\USERS\THERESA\DESKTOP\TESTNETWORKSETUP\OPEN62541\SRC\UA_TYPES.C
C:\USERS\THERESA\DESKTOP\PUBSUB-WITH-OPEN62541\PUBSUBTEST\OPEN62541\BUILD\OPEN62541-OBJECT.DIR\DEBUG\OPEN62541-OBJECT.PDB
^C:\USERS\THERESA\DESKTOP\TESTNETWORKSETUP\OPEN62541\SRC\UA_TYPES_ENCODING_BINARY.C
C:\USERS\THERESA\DESKTOP\PUBSUB-WITH-OPEN62541\PUBSUBTEST\OPEN62541\BUILD\OPEN62541-OBJECT.DIR\DEBUG\OPEN62541-OBJECT.PDB
^C:\USERS\THERESA\DESKTOP\TESTNETWORKSETUP\OPEN62541\BUILD\SRC_GENERATED\OPEN62541\TYPES_GENERATED.C
C:\USERS\THERESA\DESKTOP\PUBSUB-WITH-OPEN62541\PUBSUBTEST\OPEN62541\BUILD\OPEN62541-OBJECT.DIR\DEBUG\OPEN62541-OBJECT.PDB
^C:\USERS\THERESA\DESKTOP\TESTNETWORKSETUP\OPEN62541\BUILD\SRC_GENERATED\OPEN62541\TRANSPORT_GENERATED.C
C:\USERS\THERESA\DESKTOP\PUBSUB-WITH-OPEN62541\PUBSUBTEST\OPEN62541\BUILD\OPEN62541-OBJECT.DIR\DEBUG\OPEN62541-OBJECT.PDB
^C:\USERS\THERESA\DESKTOP\TESTNETWORKSETUP\OPEN62541\BUILD\SRC_GENERATED\OPEN62541\STATUSCODES.C
C:\USERS\THERESA\DESKTOP\PUBSUB-WITH-OPEN62541\PUBSUBTEST\OPEN62541\BUILD\OPEN62541-OBJECT.DIR\DEBUG\OPEN62541-OBJECT.PDB
^C:\USERS\THERESA\DESKTOP\TESTNETWORKSETUP\OPEN62541\SRC\UA_UTIL.C
C:\USERS\THERESA\DESKTOP\PUBSUB-WITH-OPEN62541\PUBSUBTEST\OPEN62541\BUILD\OPEN62541-OBJECT.DIR\DEBUG\OPEN62541-OBJECT.PDB
^C:\USERS\THERESA\DESKTOP\TESTNETWORKSETUP\OPEN62541\SRC\UA_WORKQUEUE.C
C:\USERS\THERESA\DESKTOP\PUBSUB-WITH-OPEN62541\PUBSUBTEST\OPEN62541\BUILD\OPEN62541-OBJECT.DIR\DEBUG\OPEN62541-OBJECT.PDB
^C:\USERS\THERESA\DESKTOP\TESTNETWORKSETUP\OPEN62541\SRC\UA_TIMER.C
C:\USERS\THERESA\DESKTOP\PUBSUB-WITH-OPEN62541\PUBSUBTEST\OPEN62541\BUILD\OPEN62541-OBJECT.DIR\DEBUG\OPEN62541-OBJECT.PDB
^C:\USERS\THERESA\DESKTOP\TESTNETWORKSETUP\OPEN62541\SRC\UA_CONNECTION.C
C:\USERS\THERESA\DESKTOP\PUBSUB-WITH-OPEN62541\PUBSUBTEST\OPEN62541\BUILD\OPEN62541-OBJECT.DIR\DEBUG\OPEN62541-OBJECT.PDB
^C:\USERS\THERESA\DESKTOP\TESTNETWORKSETUP\OPEN62541\SRC\UA_SECURECHANNEL.C
C:\USERS\THERESA\DESKTOP\PUBSUB-WITH-OPEN62541\PUBSUBTEST\OPEN62541\BUILD\OPEN62541-OBJECT.DIR\DEBUG\OPEN62541-OBJECT.PDB
^C:\USERS\THERESA\DESKTOP\TESTNETWORKSETUP\OPEN62541\SRC\SERVER\UA_SESSION.C
C:\USERS\THERESA\DESKTOP\PUBSUB-WITH-OPEN62541\PUBSUBTEST\OPEN62541\BUILD\OPEN62541-OBJECT.DIR\DEBUG\OPEN62541-OBJECT.PDB
^C:\USERS\THERESA\DESKTOP\TESTNETWORKSETUP\OPEN62541\SRC\SERVER\UA_NODES.C
C:\USERS\THERESA\DESKTOP\PUBSUB-WITH-OPEN62541\PUBSUBTEST\OPEN62541\BUILD\OPEN62541-OBJECT.DIR\DEBUG\OPEN62541-OBJECT.PDB
^C:\USERS\THERESA\DESKTOP\TESTNETWORKSETUP\OPEN62541\SRC\SERVER\UA_SERVER.C
C:\USERS\THERESA\DESKTOP\PUBSUB-WITH-OPEN62541\PUBSUBTEST\OPEN62541\BUILD\OPEN62541-OBJECT.DIR\DEBUG\OPEN62541-OBJECT.PDB
^C:\USERS\THERESA\DESKTOP\TESTNETWORKSETUP\OPEN62541\SRC\SERVER\UA_SERVER_NS0.C
C:\USERS\THERESA\DESKTOP\PUBSUB-WITH-OPEN62541\PUBSUBTEST\OPEN62541\BUILD\OPEN62541-OBJECT.DIR\DEBUG\OPEN62541-OBJECT.PDB
^C:\USERS\THERESA\DESKTOP\TESTNETWORKSETUP\OPEN62541\SRC\SERVER\UA_SERVER_BINARY.C
C:\USERS\THERESA\DESKTOP\PUBSUB-WITH-OPEN62541\PUBSUBTEST\OPEN62541\BUILD\OPEN62541-OBJECT.DIR\DEBUG\OPEN62541-OBJECT.PDB
^C:\USERS\THERESA\DESKTOP\TESTNETWORKSETUP\OPEN62541\SRC\SERVER\UA_SERVER_UTILS.C
C:\USERS\THERESA\DESKTOP\PUBSUB-WITH-OPEN62541\PUBSUBTEST\OPEN62541\BUILD\OPEN62541-OBJECT.DIR\DEBUG\OPEN62541-OBJECT.PDB
^C:\USERS\THERESA\DESKTOP\TESTNETWORKSETUP\OPEN62541\SRC\SERVER\UA_SERVER_DISCOVERY.C
C:\USERS\THERESA\DESKTOP\PUBSUB-WITH-OPEN62541\PUBSUBTEST\OPEN62541\BUILD\OPEN62541-OBJECT.DIR\DEBUG\OPEN62541-OBJECT.PDB
^C:\USERS\THERESA\DESKTOP\TESTNETWORKSETUP\OPEN62541\SRC\SERVER\UA_SECURECHANNEL_MANAGER.C
C:\USERS\THERESA\DESKTOP\PUBSUB-WITH-OPEN62541\PUBSUBTEST\OPEN62541\BUILD\OPEN62541-OBJECT.DIR\DEBUG\OPEN62541-OBJECT.PDB
^C:\USERS\THERESA\DESKTOP\TESTNETWORKSETUP\OPEN62541\SRC\SERVER\UA_SESSION_MANAGER.C
C:\USERS\THERESA\DESKTOP\PUBSUB-WITH-OPEN62541\PUBSUBTEST\OPEN62541\BUILD\OPEN62541-OBJECT.DIR\DEBUG\OPEN62541-OBJECT.PDB
^C:\USERS\THERESA\DESKTOP\TESTNETWORKSETUP\OPEN62541\SRC\PUBSUB\UA_PUBSUB_NETWORKMESSAGE.C
C:\USERS\THERESA\DESKTOP\PUBSUB-WITH-OPEN62541\PUBSUBTEST\OPEN62541\BUILD\OPEN62541-OBJECT.DIR\DEBUG\OPEN62541-OBJECT.PDB
^C:\USERS\THERESA\DESKTOP\TESTNETWORKSETUP\OPEN62541\SRC\PUBSUB\UA_PUBSUB.C
C:\USERS\THERESA\DESKTOP\PUBSUB-WITH-OPEN62541\PUBSUBTEST\OPEN62541\BUILD\OPEN62541-OBJECT.DIR\DEBUG\OPEN62541-OBJECT.PDB
^C:\USERS\THERESA\DESKTOP\TESTNETWORKSETUP\OPEN62541\SRC\PUBSUB\UA_PUBSUB_MANAGER.C
C:\USERS\THERESA\DESKTOP\PUBSUB-WITH-OPEN62541\PUBSUBTEST\OPEN62541\BUILD\OPEN62541-OBJECT.DIR\DEBUG\OPEN62541-OBJECT.PDB
^C:\USERS\THERESA\DESKTOP\TESTNETWORKSETUP\OPEN62541\SRC\PUBSUB\UA_PUBSUB_NS0.C
C:\USERS\THERESA\DESKTOP\PUBSUB-WITH-OPEN62541\PUBSUBTEST\OPEN62541\BUILD\OPEN62541-OBJECT.DIR\DEBUG\OPEN62541-OBJECT.PDB
^C:\USERS\THERESA\DESKTOP\TESTNETWORKSETUP\OPEN62541\SRC\SERVER\UA_SERVICES_VIEW.C
C:\USERS\THERESA\DESKTOP\PUBSUB-WITH-OPEN62541\PUBSUBTEST\OPEN62541\BUILD\OPEN62541-OBJECT.DIR\DEBUG\OPEN62541-OBJECT.PDB
^C:\USERS\THERESA\DESKTOP\TESTNETWORKSETUP\OPEN62541\SRC\SERVER\UA_SERVICES_CALL.C
C:\USERS\THERESA\DESKTOP\PUBSUB-WITH-OPEN62541\PUBSUBTEST\OPEN62541\BUILD\OPEN62541-OBJECT.DIR\DEBUG\OPEN62541-OBJECT.PDB
^C:\USERS\THERESA\DESKTOP\TESTNETWORKSETUP\OPEN62541\SRC\SERVER\UA_SERVICES_SESSION.C
C:\USERS\THERESA\DESKTOP\PUBSUB-WITH-OPEN62541\PUBSUBTEST\OPEN62541\BUILD\OPEN62541-OBJECT.DIR\DEBUG\OPEN62541-OBJECT.PDB
^C:\USERS\THERESA\DESKTOP\TESTNETWORKSETUP\OPEN62541\SRC\SERVER\UA_SERVICES_ATTRIBUTE.C
C:\USERS\THERESA\DESKTOP\PUBSUB-WITH-OPEN62541\PUBSUBTEST\OPEN62541\BUILD\OPEN62541-OBJECT.DIR\DEBUG\OPEN62541-OBJECT.PDB
^C:\USERS\THERESA\DESKTOP\TESTNETWORKSETUP\OPEN62541\SRC\SERVER\UA_SERVICES_DISCOVERY.C
C:\USERS\THERESA\DESKTOP\PUBSUB-WITH-OPEN62541\PUBSUBTEST\OPEN62541\BUILD\OPEN62541-OBJECT.DIR\DEBUG\OPEN62541-OBJECT.PDB
^C:\USERS\THERESA\DESKTOP\TESTNETWORKSETUP\OPEN62541\SRC\SERVER\UA_SERVICES_SUBSCRIPTION.C
C:\USERS\THERESA\DESKTOP\PUBSUB-WITH-OPEN62541\PUBSUBTEST\OPEN62541\BUILD\OPEN62541-OBJECT.DIR\DEBUG\OPEN62541-OBJECT.PDB
^C:\USERS\THERESA\DESKTOP\TESTNETWORKSETUP\OPEN62541\SRC\SERVER\UA_SERVICES_SECURECHANNEL.C
C:\USERS\THERESA\DESKTOP\PUBSUB-WITH-OPEN62541\PUBSUBTEST\OPEN62541\BUILD\OPEN62541-OBJECT.DIR\DEBUG\OPEN62541-OBJECT.PDB
^C:\USERS\THERESA\DESKTOP\TESTNETWORKSETUP\OPEN62541\SRC\SERVER\UA_SERVICES_NODEMANAGEMENT.C
C:\USERS\THERESA\DESKTOP\PUBSUB-WITH-OPEN62541\PUBSUBTEST\OPEN62541\BUILD\OPEN62541-OBJECT.DIR\DEBUG\OPEN62541-OBJECT.PDB
^C:\USERS\THERESA\DESKTOP\TESTNETWORKSETUP\OPEN62541\SRC\SERVER\UA_SERVICES_DISCOVERY_MULTICAST.C
C:\USERS\THERESA\DESKTOP\PUBSUB-WITH-OPEN62541\PUBSUBTEST\OPEN62541\BUILD\OPEN62541-OBJECT.DIR\DEBUG\OPEN62541-OBJECT.PDB
^C:\USERS\THERESA\DESKTOP\TESTNETWORKSETUP\OPEN62541\SRC\CLIENT\UA_CLIENT.C
C:\USERS\THERESA\DESKTOP\PUBSUB-WITH-OPEN62541\PUBSUBTEST\OPEN62541\BUILD\OPEN62541-OBJECT.DIR\DEBUG\OPEN62541-OBJECT.PDB
^C:\USERS\THERESA\DESKTOP\TESTNETWORKSETUP\OPEN62541\SRC\CLIENT\UA_CLIENT_CONNECT.C
C:\USERS\THERESA\DESKTOP\PUBSUB-WITH-OPEN62541\PUBSUBTEST\OPEN62541\BUILD\OPEN62541-OBJECT.DIR\DEBUG\OPEN62541-OBJECT.PDB
^C:\USERS\THERESA\DESKTOP\TESTNETWORKSETUP\OPEN62541\SRC\CLIENT\UA_CLIENT_CONNECT_ASYNC.C
C:\USERS\THERESA\DESKTOP\PUBSUB-WITH-OPEN62541\PUBSUBTEST\OPEN62541\BUILD\OPEN62541-OBJECT.DIR\DEBUG\OPEN62541-OBJECT.PDB
^C:\USERS\THERESA\DESKTOP\TESTNETWORKSETUP\OPEN62541\SRC\CLIENT\UA_CLIENT_DISCOVERY.C
C:\USERS\THERESA\DESKTOP\PUBSUB-WITH-OPEN62541\PUBSUBTEST\OPEN62541\BUILD\OPEN62541-OBJECT.DIR\DEBUG\OPEN62541-OBJECT.PDB
^C:\USERS\THERESA\DESKTOP\TESTNETWORKSETUP\OPEN62541\SRC\CLIENT\UA_CLIENT_HIGHLEVEL.C
C:\USERS\THERESA\DESKTOP\PUBSUB-WITH-OPEN62541\PUBSUBTEST\OPEN62541\BUILD\OPEN62541-OBJECT.DIR\DEBUG\OPEN62541-OBJECT.PDB
^C:\USERS\THERESA\DESKTOP\TESTNETWORKSETUP\OPEN62541\SRC\CLIENT\UA_CLIENT_SUBSCRIPTIONS.C
C:\USERS\THERESA\DESKTOP\PUBSUB-WITH-OPEN62541\PUBSUBTEST\OPEN62541\BUILD\OPEN62541-OBJECT.DIR\DEBUG\OPEN62541-OBJECT.PDB
^C:\USERS\THERESA\DESKTOP\TESTNETWORKSETUP\OPEN62541\SRC\CLIENT\UA_CLIENT_WORKER.C
C:\USERS\THERESA\DESKTOP\PUBSUB-WITH-OPEN62541\PUBSUBTEST\OPEN62541\BUILD\OPEN62541-OBJECT.DIR\DEBUG\OPEN62541-OBJECT.PDB
^C:\USERS\THERESA\DESKTOP\TESTNETWORKSETUP\OPEN62541\DEPS\LIBC_TIME.C
C:\USERS\THERESA\DESKTOP\PUBSUB-WITH-OPEN62541\PUBSUBTEST\OPEN62541\BUILD\OPEN62541-OBJECT.DIR\DEBUG\OPEN62541-OBJECT.PDB
^C:\USERS\THERESA\DESKTOP\TESTNETWORKSETUP\OPEN62541\DEPS\PCG_BASIC.C
C:\USERS\THERESA\DESKTOP\PUBSUB-WITH-OPEN62541\PUBSUBTEST\OPEN62541\BUILD\OPEN62541-OBJECT.DIR\DEBUG\OPEN62541-OBJECT.PDB
^C:\USERS\THERESA\DESKTOP\TESTNETWORKSETUP\OPEN62541\DEPS\BASE64.C
C:\USERS\THERESA\DESKTOP\PUBSUB-WITH-OPEN62541\PUBSUBTEST\OPEN62541\BUILD\OPEN62541-OBJECT.DIR\DEBUG\OPEN62541-OBJECT.PDB
^C:\USERS\THERESA\DESKTOP\TESTNETWORKSETUP\OPEN62541\BUILD\SRC_GENERATED\OPEN62541\NAMESPACE0_GENERATED.C
C:\USERS\THERESA\DESKTOP\PUBSUB-WITH-OPEN62541\PUBSUBTEST\OPEN62541\BUILD\OPEN62541-OBJECT.DIR\DEBUG\OPEN62541-OBJECT.PDB
^C:\USERS\THERESA\DESKTOP\TESTNETWORKSETUP\OPEN62541\SRC\SERVER\UA_DISCOVERY_MANAGER.C
C:\USERS\THERESA\DESKTOP\PUBSUB-WITH-OPEN62541\PUBSUBTEST\OPEN62541\BUILD\OPEN62541-OBJECT.DIR\DEBUG\OPEN62541-OBJECT.PDB
^C:\USERS\THERESA\DESKTOP\TESTNETWORKSETUP\OPEN62541\SRC\SERVER\UA_SUBSCRIPTION.C
C:\USERS\THERESA\DESKTOP\PUBSUB-WITH-OPEN62541\PUBSUBTEST\OPEN62541\BUILD\OPEN62541-OBJECT.DIR\DEBUG\OPEN62541-OBJECT.PDB
^C:\USERS\THERESA\DESKTOP\TESTNETWORKSETUP\OPEN62541\SRC\SERVER\UA_SUBSCRIPTION_MONITOREDITEM.C
C:\USERS\THERESA\DESKTOP\PUBSUB-WITH-OPEN62541\PUBSUBTEST\OPEN62541\BUILD\OPEN62541-OBJECT.DIR\DEBUG\OPEN62541-OBJECT.PDB
^C:\USERS\THERESA\DESKTOP\TESTNETWORKSETUP\OPEN62541\SRC\SERVER\UA_SUBSCRIPTION_DATACHANGE.C
C:\USERS\THERESA\DESKTOP\PUBSUB-WITH-OPEN62541\PUBSUBTEST\OPEN62541\BUILD\OPEN62541-OBJECT.DIR\DEBUG\OPEN62541-OBJECT.PDB
