^C:\USERS\THERESA\DESKTOP\TESTNETWORKSETUP\OPEN62541\CMAKELISTS.TXT
C:\PROGRAM FILES\CMAKE\SHARE\CMAKE-3.14\MODULES\BASICCONFIGVERSION-ANYNEWERVERSION.CMAKE.IN
C:\PROGRAM FILES\CMAKE\SHARE\CMAKE-3.14\MODULES\CMAKECINFORMATION.CMAKE
C:\PROGRAM FILES\CMAKE\SHARE\CMAKE-3.14\MODULES\CMAKECXXINFORMATION.CMAKE
C:\PROGRAM FILES\CMAKE\SHARE\CMAKE-3.14\MODULES\CMAKECHECKCOMPILERFLAGCOMMONPATTERNS.CMAKE
C:\PROGRAM FILES\CMAKE\SHARE\CMAKE-3.14\MODULES\CMAKECOMMONLANGUAGEINCLUDE.CMAKE
C:\PROGRAM FILES\CMAKE\SHARE\CMAKE-3.14\MODULES\CMAKEGENERICSYSTEM.CMAKE
C:\PROGRAM FILES\CMAKE\SHARE\CMAKE-3.14\MODULES\CMAKEINITIALIZECONFIGS.CMAKE
C:\PROGRAM FILES\CMAKE\SHARE\CMAKE-3.14\MODULES\CMAKELANGUAGEINFORMATION.CMAKE
C:\PROGRAM FILES\CMAKE\SHARE\CMAKE-3.14\MODULES\CMAKEPACKAGECONFIGHELPERS.CMAKE
C:\PROGRAM FILES\CMAKE\SHARE\CMAKE-3.14\MODULES\CMAKERCINFORMATION.CMAKE
C:\PROGRAM FILES\CMAKE\SHARE\CMAKE-3.14\MODULES\CMAKESYSTEMSPECIFICINFORMATION.CMAKE
C:\PROGRAM FILES\CMAKE\SHARE\CMAKE-3.14\MODULES\CMAKESYSTEMSPECIFICINITIALIZE.CMAKE
C:\PROGRAM FILES\CMAKE\SHARE\CMAKE-3.14\MODULES\CHECKCCOMPILERFLAG.CMAKE
C:\PROGRAM FILES\CMAKE\SHARE\CMAKE-3.14\MODULES\CHECKCSOURCECOMPILES.CMAKE
C:\PROGRAM FILES\CMAKE\SHARE\CMAKE-3.14\MODULES\COMPILER\CMAKECOMMONCOMPILERMACROS.CMAKE
C:\PROGRAM FILES\CMAKE\SHARE\CMAKE-3.14\MODULES\COMPILER\MSVC-C.CMAKE
C:\PROGRAM FILES\CMAKE\SHARE\CMAKE-3.14\MODULES\COMPILER\MSVC-CXX.CMAKE
C:\PROGRAM FILES\CMAKE\SHARE\CMAKE-3.14\MODULES\FINDGIT.CMAKE
C:\PROGRAM FILES\CMAKE\SHARE\CMAKE-3.14\MODULES\FINDPACKAGEHANDLESTANDARDARGS.CMAKE
C:\PROGRAM FILES\CMAKE\SHARE\CMAKE-3.14\MODULES\FINDPACKAGEMESSAGE.CMAKE
C:\PROGRAM FILES\CMAKE\SHARE\CMAKE-3.14\MODULES\FINDPYTHONINTERP.CMAKE
C:\PROGRAM FILES\CMAKE\SHARE\CMAKE-3.14\MODULES\PLATFORM\WINDOWS-MSVC-C.CMAKE
C:\PROGRAM FILES\CMAKE\SHARE\CMAKE-3.14\MODULES\PLATFORM\WINDOWS-MSVC-CXX.CMAKE
C:\PROGRAM FILES\CMAKE\SHARE\CMAKE-3.14\MODULES\PLATFORM\WINDOWS-MSVC.CMAKE
C:\PROGRAM FILES\CMAKE\SHARE\CMAKE-3.14\MODULES\PLATFORM\WINDOWS.CMAKE
C:\PROGRAM FILES\CMAKE\SHARE\CMAKE-3.14\MODULES\PLATFORM\WINDOWSPATHS.CMAKE
C:\PROGRAM FILES\CMAKE\SHARE\CMAKE-3.14\MODULES\WRITEBASICCONFIGVERSIONFILE.CMAKE
C:\USERS\THERESA\DESKTOP\TESTNETWORKSETUP\OPEN62541\BUILD\CMAKEFILES\3.14.0\CMAKECCOMPILER.CMAKE
C:\USERS\THERESA\DESKTOP\TESTNETWORKSETUP\OPEN62541\BUILD\CMAKEFILES\3.14.0\CMAKECXXCOMPILER.CMAKE
C:\USERS\THERESA\DESKTOP\TESTNETWORKSETUP\OPEN62541\BUILD\CMAKEFILES\3.14.0\CMAKERCCOMPILER.CMAKE
C:\USERS\THERESA\DESKTOP\TESTNETWORKSETUP\OPEN62541\BUILD\CMAKEFILES\3.14.0\CMAKESYSTEM.CMAKE
C:\USERS\THERESA\DESKTOP\TESTNETWORKSETUP\OPEN62541\INCLUDE\OPEN62541\CONFIG.H.IN
C:\USERS\THERESA\DESKTOP\TESTNETWORKSETUP\OPEN62541\OPEN62541.PC.IN
C:\USERS\THERESA\DESKTOP\TESTNETWORKSETUP\OPEN62541\TOOLS\CMAKE\ASSIGNSOURCEGROUP.CMAKE
C:\USERS\THERESA\DESKTOP\TESTNETWORKSETUP\OPEN62541\TOOLS\CMAKE\COMPILERFLAGS.CMAKE
C:\USERS\THERESA\DESKTOP\TESTNETWORKSETUP\OPEN62541\TOOLS\CMAKE\FINDCLANGTOOLS.CMAKE
C:\USERS\THERESA\DESKTOP\TESTNETWORKSETUP\OPEN62541\TOOLS\CMAKE\LINTING_BUILD.CMAKE
C:\USERS\THERESA\DESKTOP\TESTNETWORKSETUP\OPEN62541\TOOLS\CMAKE\LINTING_TARGET.CMAKE
C:\USERS\THERESA\DESKTOP\TESTNETWORKSETUP\OPEN62541\TOOLS\CMAKE\MACROS_INTERNAL.CMAKE
C:\USERS\THERESA\DESKTOP\TESTNETWORKSETUP\OPEN62541\TOOLS\CMAKE\MACROS_PUBLIC.CMAKE
C:\USERS\THERESA\DESKTOP\TESTNETWORKSETUP\OPEN62541\TOOLS\CMAKE\OPEN62541CONFIG.CMAKE.IN
